,taxon_id,taxon_rank,latin_name,english_name
80651,8W,class,Cephalaspidomorphi,
80652,3SP,order,Petromyzontiformes,
80653,6247N,family,Geotriidae,
80654,4N38,genus,Geotria,
80655,3FT77,species,Geotria australis,Lamprey
80656,CXR,family,Mordaciidae,
80657,5V5C,genus,Mordacia,
80658,44CSK,species,Mordacia lapicida,Chilean lamprey
80659,44CSL,species,Mordacia mordax,Australian lamprey
80660,44CSM,species,Mordacia praecox,Australian brook lamprey
80661,625W9,family,Petromyzontidae,
80662,3J3F,genus,Caspiomyzon,
80663,RKYS,species,Caspiomyzon graecus,
80664,RKYT,species,Caspiomyzon hellenicus,Greek brook Lamprey
80665,69D4C,species,Caspiomyzon wagneri,Caspian lamprey
80666,4C8B,genus,Entosphenus,
80667,6FFWB,species,Entosphenus folletti,Modoc brook lamprey
80668,6FFWC,species,Entosphenus lethophagus,Pit-Klamath brook lamprey
80669,6FG8C,species,Entosphenus macrostomus,Lake Lamprey
80670,6FG8F,species,Entosphenus minimus,Miller Lake Lamprey
80671,6FG8H,species,Entosphenus similis,Klamath lamprey
80672,6FFWG,species,Entosphenus tridentatus,Pacific lamprey
80673,4FHN,genus,Eudontomyzon,
80674,3C2LN,species,Eudontomyzon danfordi,Carpathian brook lamprey
80675,6H8H8,species,Eudontomyzon mariae,
80676,3C2LV,species,Eudontomyzon morii,Korean lamprey
80677,638H6,genus,Ichthyomyzon,
80678,6N5T5,species,Ichthyomyzon bdellium,Ohio lamprey
80679,6N64T,species,Ichthyomyzon castaneus,Chestnut lamprey
80680,6N655,species,Ichthyomyzon fossor,Northern brook lamprey
80681,6MTSN,species,Ichthyomyzon gagei,Southern brook lamprey
80682,6N5SN,species,Ichthyomyzon greeleyi,Allegheny brook lamprey
80683,6MTT2,species,Ichthyomyzon unicuspis,Northern lamprey
80684,637SF,genus,Lampetra,
80685,3S39H,species,Lampetra aepyptera,Least brook lamprey
80686,3S39M,species,Lampetra alavariensis,
80687,3S39Q,species,Lampetra auremensis,
80688,3S39T,species,Lampetra ayresii,Parasitic river lamprey
80689,6NVLC,species,Lampetra fluviatilis,European river lamprey
80690,6NVKY,species,Lampetra hubbsi,Central California brook lamprey
80691,6NVL8,species,Lampetra lanceolata,Turkish brook lamprey
80692,6NVL3,species,Lampetra lusitanica,
80693,6NVML,species,Lampetra pacifica,Pacific brook lamprey
80694,6NVMN,species,Lampetra planeri,Brook Lamprey
80695,6NVMH,species,Lampetra richardsoni,European brook lamprey
80696,6NVMD,species,Lampetra soljani,
80697,5DP9,genus,Lethenteron,
80698,6Q2LK,species,Lethenteron alaskense,
80699,722LK,species,Lethenteron appendix,
80700,6Q2LL,species,Lethenteron camtschaticum,
80701,6PQLJ,species,Lethenteron kessleri,
80702,722LJ,species,Lethenteron matsubarai,
80703,6Q2LG,species,Lethenteron ninae,
80704,722LG,species,Lethenteron reissneri,
80705,6PQLH,species,Lethenteron zanandreai,
80706,6M5D,genus,Petromyzon,
80707,6V6DZ,species,Petromyzon marinus,Eel sucker
80708,63V5N,genus,Tetrapleurodon,
80709,7C58N,species,Tetrapleurodon geminis,Jacona lamprey
